…
list.files(file.path(flights_dir, "AA"))
#>  [1] "2013-01.parquet" "2013-02.parquet" "2013-03.parquet" "2013-04.parquet"
#>  [5] "2013-05.parquet" "2013-06.parquet" "2013-07.parquet" "2013-08.parquet"
#>  [9] "2013-09.parquet" "2013-10.parquet" "2013-11.parquet" "2013-12.parquet"

Cool, now we’ve got some sample data. Reading a single file is easy:

aa_2013_01 <- file.path(flights_dir, "AA", "2013-01.parquet")

arrow::read_parquet(aa_2013_01)
#> # A tibble: 2,794 x 16
#>      day dep_time sched_dep_time dep_delay arr_time sched_arr_time arr_delay
#>    <int>    <int>          <int>     <dbl>    <int>          <int>     <dbl>
#>  1     1      542            540         2      923            850        33
#>  2     1      558            600        -2      753            745         8
#>  3     1      559            600        -1      941            910        31
#>  4     1      606            610        -4      858            910       -12
#>  5     1      623            610        13      920            915         5
#>  6     1      628            630        -2     1137           1140        -3
#>  7     1      629            630        -1      824            810        14
#>  8     1      635            635         0     1028            940        48
#>  9     1      656            700        -4      854            850         4
#> 10     1      656            659        -3      949            959       -10
#> # … with 2,784 more rows, and 9 more variables: flight <int>, tailnum <chr>,
#> #   origin <chr>, dest <chr>, air_time <dbl>, distance <dbl>, hour <dbl>,
#> #   minute <dbl>, time_hour <dttm>

We can even only read in only a subset of columns:

arrow::read_parquet(aa_2013_01, contains('time'))
#> # A tibble: 2,794 x 6
#>    dep_time sched_dep_time arr_time sched_arr_time air_time time_hour          
#>       <int>          <int>    <int>          <int>    <dbl> <dttm>             
#>  1      542            540      923            850      160 2013-01-01 10:00:00
#>  2      558            600      753            745      138 2013-01-01 11:00:00
#>  3      559            600      941            910      257 2013-01-01 11:00:00
#>  4      606            610      858            910      152 2013-01-01 11:00:00
#>  5      623            610      920            915      153 2013-01-01 11:00:00
#>  6      628            630     1137           1140      192 2013-01-01 11:00:00
#>  7      629            630      824            810      140 2013-01-01 11:00:00
#>  8      635            635     1028            940      248 2013-01-01 11:00:00
#>  9      656            700      854            850      143 2013-01-01 12:00:00
#> 10      656            659      949            959      142 2013-01-01 11:00:00
#> # … with 2,784 more rows

But what if we want to work across files? A common idiom is to iterate across a
vector of files, read them in, and rbind them, e.g.

file.path(flights_dir, "AA") %>% 
    list.files(full.names = TRUE) %>% 
    setNames(., .) %>%    # so `.id` will work
    map_dfr(arrow::read_parquet, .id = "filename")
#> # A tibble: 32,729 x 17
#>    filename   day dep_time sched_dep_time dep_delay arr_time sched_arr_time
#>    <chr>    <int>    <int>          <int>     <dbl>    <int>          <int>
#>  1 /tmp/fl…     1      542            540         2      923            850
#>  2 /tmp/fl…     1      558            600        -2      753            745
#>  3 /tmp/fl…     1      559            600        -1      941            910
#>  4 /tmp/fl…     1      606            610        -4      858            910
#>  5 /tmp/fl…     1      623            610        13      920            915
#>  6 /tmp/fl…     1      628            630        -2     1137           1140
#>  7 /tmp/fl…     1      629            630        -1      824            810
#>  8 /tmp/fl…     1      635            635         0     1028            940
#>  9 /tmp/fl…     1      656            700        -4      854            850
#> 10 /tmp/fl…     1      656            659        -3      949            959
#> # … with 32,719 more rows, and 10 more variables: arr_delay <dbl>,
#> #   flight <int>, tailnum <chr>, origin <chr>, dest <chr>, air_time <dbl>,
#> #   distance <dbl>, hour <dbl>, minute <dbl>, time_hour <dttm>

This works—to a point. The core limitation is memory: if the files in question
require more memory to read in than is available, this approach is insufficient.
Parquet allows us to read in only some columns, which stretches this a bit
further, but ultimately the next stage is processing each file as a batch before
combining, e.g.

file.path(flights_dir, "AA") %>% 
    list.files(full.names = TRUE) %>% 
    setNames(., .) %>% 
    map_dfr(
        ~arrow::read_parquet(.x) %>% count(day), 
        .id = "filename"
    )
#> # A tibble: 365 x 3
#>    filename                          day     n
#>    <chr>                           <int> <int>
#>  1 /tmp/flights/AA/2013-01.parquet     1    94
#>  2 /tmp/flights/AA/2013-01.parquet     2    94
#>  3 /tmp/flights/AA/2013-01.parquet     3    95
#>  4 /tmp/flights/AA/2013-01.parquet     4    95
#>  5 /tmp/flights/AA/2013-01.parquet     5    77
#>  6 /tmp/flights/AA/2013-01.parquet     6    89
#>  7 /tmp/flights/AA/2013-01.parquet     7    95
#>  8 /tmp/flights/AA/2013-01.parquet     8    92
#>  9 /tmp/flights/AA/2013-01.parquet     9    92
#> 10 /tmp/flights/AA/2013-01.parquet    10    93
#> # … with 355 more rows
…
If we collect that into memory (given it’s small enough that we can), we get
flights back:

flights2 <- tbl(drill, "dfs.tmp.`flights/*`") %>% collect()
flights2
#> # A tibble: 336,776 x 17
#>    flight arr_delay distance tailnum dep_time sched_dep_time origin
#>     <dbl>     <dbl>    <dbl> <chr>      <dbl>          <dbl> <chr> 
#>  1   3496        -4      335 N904XJ       643            645 LGA   
#>  2   3769         7      569 N832AY       655            659 EWR   
#>  3   3611       -10      340 N8673D       749            759 JFK   
#>  4   3507        28     1182 N934XJ       752            800 JFK   
#>  5   3353       -11      509 N907XJ       755            800 JFK   
#>  6   3528       -12      833 N293PQ       800            805 LGA   
#>  7   3538       -18     1029 N928XJ       801            800 JFK   
#>  8   3489        -7     1080 N917XJ       805            805 LGA   
#>  9   3317       -10      301 N935XJ       807            815 JFK   
#> 10   3868         1      427 N8541D       825            830 JFK   
#> # … with 336,766 more rows, and 10 more variables: sched_arr_time <dbl>,
#> #   dep_delay <dbl>, dir0 <chr>, dest <chr>, minute <dbl>, hour <dbl>,
#> #   arr_time <dbl>, air_time <dbl>, time_hour <dbl>, day <dbl>
…
