E. Visel
…
triples
#> # A tibble: 325 x 4
#>        P     a     b     c
#>    <int> <dbl> <dbl> <dbl>
#>  1    12    3.    4.    5.
#>  2    24    6.    8.   10.
#>  3    30    5.   12.   13.
#>  4    36    9.   12.   15.
#>  5    40    8.   15.   17.
#>  6    48   12.   16.   20.
#>  7    56    7.   24.   25.
#>  8    60   15.   20.   25.
#>  9    60   10.   24.   26.
#> 10    70   20.   21.   29.
#> # ... with 315 more rows
…
triples
#> # A tibble: 29,933 x 4
#>        P     a     b     c
#>    <int> <dbl> <dbl> <dbl>
#>  1    12    3.    4.    5.
#>  2    24    6.    8.   10.
#>  3    30    5.   12.   13.
#>  4    36    9.   12.   15.
#>  5    40    8.   15.   17.
#>  6    48   12.   16.   20.
#>  7    56    7.   24.   25.
#>  8    60   15.   20.   25.
#>  9    60   10.   24.   26.
#> 10    70   20.   21.   29.
#> # ... with 29,923 more rows
…
